…
``` r
table_returns <-
  daily_returns %>%
  pivot_wider(names_from = symbol, values_from = dreturns) %>%
  select(-"date")

(table_returns)
```

    ## # A tibble: 8,634 × 4
    ##     `^FCHI`  `^IXIC`  `^N225`    `^MXX`
    ##       <dbl>    <dbl>    <dbl>     <dbl>
    ##  1  0        0       NA        0       
    ##  2  0.0117   0.0106  NA        0.0210  
    ##  3  0.00977  0.00886  0       -0.00183 
    ##  4 -0.00498  0.00734 -0.00986  0.00876 
    ##  5  0.00388  0.0133  -0.0361   0.0204  
    ##  6  0.0270   0.0155   0.0175   0.00917 
    ##  7  0.00191 -0.00661 -0.0317  -0.00314 
    ##  8 -0.00713  0.00313 -0.0306   0.00669 
    ##  9  0.0107   0.0131   0.00361  0.0191  
    ## 10  0.0162   0.00810 NA        0.000703
    ## # ℹ 8,624 more rows
…
